/Users/marinellmedina/Downloads/spring-petclinic-master/src/test/java/org/springframework/samples/petclinic/owner/PetControllerTests.java
/Users/marinellmedina/Downloads/spring-petclinic-master/src/test/java/org/springframework/samples/petclinic/model/ValidatorTests.java
/Users/marinellmedina/Downloads/spring-petclinic-master/src/test/java/org/springframework/samples/petclinic/owner/VisitControllerTests.java
/Users/marinellmedina/Downloads/spring-petclinic-master/src/test/java/org/springframework/samples/petclinic/PetclinicIntegrationTests.java
/Users/marinellmedina/Downloads/spring-petclinic-master/src/test/java/org/springframework/samples/petclinic/service/ClinicServiceTests.java
/Users/marinellmedina/Downloads/spring-petclinic-master/src/test/java/org/springframework/samples/petclinic/vet/VetControllerTests.java
/Users/marinellmedina/Downloads/spring-petclinic-master/src/test/java/org/springframework/samples/petclinic/owner/OwnerControllerTests.java
/Users/marinellmedina/Downloads/spring-petclinic-master/src/test/java/org/springframework/samples/petclinic/service/EntityUtils.java
/Users/marinellmedina/Downloads/spring-petclinic-master/src/test/java/org/springframework/samples/petclinic/vet/VetTests.java
/Users/marinellmedina/Downloads/spring-petclinic-master/src/test/java/org/springframework/samples/petclinic/owner/PetTypeFormatterTests.java
/Users/marinellmedina/Downloads/spring-petclinic-master/src/test/java/org/springframework/samples/petclinic/system/CrashControllerTests.java
